Name,Age,Tested,Division,Equipment,Event,BodyweightKg,WeightClassKg,Squat1Kg,Squat2Kg,Squat3Kg,Squat4Kg,Best3SquatKg,Bench1Kg,Bench2Kg,Bench3Kg,Bench4Kg,Best3BenchKg,Deadlift1Kg,Deadlift2Kg,Deadlift3Kg,Deadlift4Kg,Best3DeadliftKg,TotalKg,Sex,Place
Mena Majury,14,Yes,F-T-A-R,Raw,BD,59.83,60,,,,,,35,-40,42.5,,42.5,87.5,92.5,97.5,100,97.5,140,F,1
Jaynie White,38,Yes,F-S-A-R,Wraps,SBD,53.75,56,80,82.5,-85,,82.5,37.5,40,42.5,,42.5,102.5,-110,110,,110,235,F,1
Julie Bissett,36,Yes,F-S-A-R,Raw,BD,50.89,52,,,,,,45,47.5,-50,,47.5,102.5,110,117.5,,117.5,165,F,1
Corinne Sauvé,25,Yes,F-O-A-R,Wraps,SBD,59.19,60,-87.5,95,102.5,,102.5,55,60,-65,,60,102.5,-112.5,115,,115,277.5,F,2
Alexis Jones,42,Yes,F-O-A-R,Wraps,SBD,64.86,67.5,75,82.5,87.5,,87.5,62.5,65,67.5,-70,67.5,102.5,112.5,117.5,,117.5,272.5,F,2
Vanessa Parsons,43,Yes,F-M1-A-R,Wraps,SBD,69.49,75,87.5,95,100,,100,50,-55,-55,,50,105,115,122.5,125,122.5,272.5,F,2
Sabina Sleno,44,Yes,F-M1-A-R,Raw,BD,67.13,67.5,,,,,,50,55,-57.5,,55,105,115,122.5,-125,122.5,177.5,F,1
Katherine Smith,22,Yes,F-J-A-R,Wraps,SBD,81.19,82.5,60,70,80,,80,52.5,-62.5,-77.5,,52.5,107.5,120,127.5,,127.5,260,F,1
Christine Sanchez,43,Yes,F-M1-A-M,Multi-ply,SBD,80.29,82.5,95,107.5,115,117.5,115,57.5,62.5,67.5,-70,67.5,107.5,122.5,132.5,137.5,132.5,315,F,1
Bethany Savage,33,Yes,F-O-A-R,Wraps,SBD,59.19,60,87.5,97.5,102.5,,102.5,72.5,77.5,82.5,,82.5,107.5,120,125,,125,310,F,1
Natalie Rivier,41,Yes,F-M1-A-R,Wraps,SBD,67.68,75,-77.5,77.5,80,,80,57.5,-60,60,,60,110,112.5,117.5,120,117.5,257.5,F,3
Alexandra Pontbriand,41,Yes,F-M1-A-R,Wraps,SBD,51.03,52,55,-62.5,-62.5,,55,-50,-50,-50,,,112.5,117.5,-122.5,,117.5,172.5,F,1
Claudine Smith,36,Yes,F-O-A-R,Wraps,SBD,70.31,75,132.5,135,-140,,135,70,72.5,-75,,72.5,125,132.5,-137.5,,132.5,340,F,1
Amber Newton,30,Yes,F-O-A-R,Wraps,SBD,62.03,67.5,87.5,95,-100,,95,65,72.5,-77.5,,72.5,127.5,-137.5,-137.5,,127.5,295,F,1
Megan Davis,23,Yes,F-J-A-R,Wraps,SBD,59.33,60,80,87.5,95,,95,60,-65,-65,,60,130,142.5,147.5,,147.5,302.5,F,1
Melanie Michaud,32,Yes,F-S-A-R,Wraps,SBD,81.65,82.5,110,117.5,127.5,,127.5,50,55,-57.5,,55,135,145,-147.5,,145,327.5,F,1
Katelin McPherson,24,Yes,F-O-A-R,Raw,B,70.08,75,,,,,,-40,42.5,45,,45,,,,,,45,F,1
David Moquin,16,Yes,M-T2-A-R,Raw,B,55.79,56,,,,,,65,72.5,-75,,72.5,,,,,,72.5,M,1
Sherry Gesner,39,Yes,F-S-A-M,Multi-ply,SBD,110.9,,87.5,97.5,115,,115,52.5,57.5,65,,65,92.5,112.5,135,,135,315,F,1
Janet Coghlan,44,Yes,F-M1-A-R,Wraps,SBD,94.26,100,67.5,72.5,75,,75,50,-52.5,-55,,50,95,97.5,102.5,,102.5,227.5,F,2
Pamela Thistle,41,Yes,F-M1-A-R,Wraps,SBD,73.94,75,82.5,92.5,105,,105,57.5,62.5,-67.5,,62.5,102.5,117.5,135,,135,302.5,F,1
Lucie Lafleur,44,Yes,F-M1-A-R,Raw,BD,87.18,90,,,,,,47.5,52.5,-57.5,,52.5,105,115,122.5,,122.5,175,F,1
Catherine Solvason,43,Yes,F-M1-A-R,Wraps,SBD,98.2,100,97.5,105,-107.5,,105,52.5,57.5,-62.5,,57.5,107.5,115,125,,125,287.5,F,1
Jenna Campbell,23,Yes,F-J-A-R,Wraps,SBD,82.55,90,82.5,-92.5,95,,95,60,65,-70,,65,115,125,-135,,125,285,F,1
Sandra Legue,48,Yes,F-M2-A-R,Raw,BD,81.65,82.5,,,,,,72.5,75,77.5,-80,77.5,117.5,122.5,127.5,,127.5,205,F,1
Brieanna Dreesen,25,Yes,F-O-A-R,Wraps,SBD,92.19,100,-107.5,110,115,,115,57.5,62.5,-67.5,,62.5,130,137.5,-155,,137.5,315,F,1
Amanda Beaulieu,29,Yes,F-O-A-R,Wraps,SBD,89.45,90,115,125,-130,,125,60,65,72.5,,72.5,135,140,147.5,152.5,147.5,345,F,2
Chrystelle Moreau,34,Yes,F-S-A-R,Wraps,SBD,94.35,100,127.5,137.5,-147.5,,137.5,75,-80,-80,,75,135,142.5,-150,,142.5,355,F,1
Liz Spurgeon,28,Yes,F-O-A-R,Wraps,SBD,82.55,90,107.5,110,115,,115,52.5,-60,62.5,,62.5,137.5,145,-160,,145,322.5,F,3
Shea Bramley,38,Yes,F-O-A-R,Wraps,SBD,75.3,82.5,100,105,110,,110,62.5,65,67.5,,67.5,142.5,150,157.5,160,157.5,335,F,1
Candyce Hamel,39,Yes,F-S-A-R,Wraps,SBD,74.3,75,107.5,115,-122.5,,115,67.5,-70,-70,,67.5,142.5,147.5,150,,150,332.5,F,1
Rim Khazall,32,Yes,F-O-A-R,Wraps,SBD,86.41,90,-130,137.5,-145,,137.5,45,50,-60,,50,165,175,182.5,,182.5,370,F,1
April Heffernan,43,Yes,F-M1-A-R,Wraps,SBD,123.6,,-165,-165,165,,165,85,92.5,-102.5,,92.5,165,175,-182.5,,175,432.5,F,1
Melissa van Noppen,37,Yes,F-S-A-R,Raw,B,73.94,75,,,,,,77.5,-80,-80,,77.5,,,,,,77.5,F,1
Richard Moquin,50,Yes,M-M3-A-R,Raw,B,104.1,110,,,,,,162.5,170,-177.5,,170,,,,,,170,M,1
Anick Proulx,33,Yes,F-S-A-R,Wraps,SBD,90.26,100,,,,,,,,,,,,,,,,,F,DQ
Melissa Eckmier,27,No,F-O-P-R,Wraps,SBD,69.17,75,100,112.5,120,,120,60,-67.5,-70,,60,110,125,135,,135,315,F,2
Véronique Fradette,26,No,F-O-P-R,Raw,SBD,53.07,56,110,117.5,122.5,125,122.5,60,-62.5,,,60,145,-157.5,160,-165,160,342.5,F,1
Veronique Gilbert,36,No,F-O-P-R,Wraps,SBD,74.39,75,130,140,-147.5,,140,95,102.5,110,-112.5,110,165,177.5,185,-187.5,185,435,F,1
JF Grenier,47,No,M-M2-P-M,Multi-ply,SBD,89.81,90,165,175,-185,,175,-110,-110,-115,,,170,177.5,-182.5,,177.5,352.5,M,1
Andrew Primeau,43,No,M-O-P-R,Wraps,SBD,103.87,110,157.5,182.5,195,,195,115,127.5,-137.5,,127.5,185,215,232.5,,232.5,555,M,3
Nathan Miller,33,No,M-S-P-R,Wraps,SBD,93.44,100,180,-187.5,192.5,,192.5,87.5,97.5,105,,105,192.5,202.5,217.5,,217.5,515,M,1
Elliot Wuorinen,43,No,M-M1-P-R,Wraps,SBD,88,90,215,227.5,-237.5,,227.5,120,-130,137.5,,137.5,225,-232.5,,,225,590,M,1
Grove Turtle,47,No,M-M2-P-R,Wraps,SBD,98.43,100,200,212.5,,,212.5,120,127.5,,,127.5,-245,,,,,340,M,1
Ricardo Machado,49,No,M-M2-P-R,Raw,B,106.14,110,,,,,,130,142.5,162.5,,162.5,,,,,,162.5,M,1
Michael Krause,49,No,M-O-P-R,Raw,B,89.13,90,,,,,,190,-197.5,-197.5,,190,,,,,,190,M,1
Ryan Silverson,43,No,M-M1-P-R,Raw,B,104.78,110,,,,,,180,192.5,-202.5,,192.5,,,,,,192.5,M,1
Hugo Gougeon,26,No,M-O-P-M,Multi-ply,B,87.32,90,,,,,,-260,260,-275,,260,,,,,,260,M,1
Mike Martelle,43,No,M-M1-P-R,Raw,BD,132.9,140,,,,,,150,152.5,-155,,152.5,185,187.5,-190,,187.5,340,M,1
Matthew Davis,41,No,M-M1-P-R,Wraps,SBD,95.93,100,150,157.5,167.5,,167.5,95,105,112.5,,112.5,187.5,197.5,215,,215,495,M,1
Zain Spoenlein,15,No,M-T-P-R,Wraps,SBD,99.79,100,190,205,,,205,145,157.5,-162.5,,157.5,230,-247.5,-247.5,,230,592.5,M,1
Stef Morrissette,48,No,M-M2-P-M,Multi-ply,SBD,119.29,125,190,215,227.5,,227.5,167.5,177.5,-182.5,,177.5,227.5,240,250,,250,655,M,1
Rino Matarazzo,30,No,M-O-P-R,Wraps,SBD,104.55,110,182.5,200,-210,,200,127.5,137.5,-140,,137.5,240,257.5,-272.5,,257.5,595,M,2
Jeff Spoenlein,36,No,M-S-P-R,Wraps,SBD,108.59,110,205,215,227.5,,227.5,175,182.5,-190,,182.5,265,272.5,277.5,,277.5,687.5,M,1
Brent Joly,38,No,M-S-P-R,Raw,BD,150.25,140+,,,,,,185,195,-202.5,,195,245,270,280,,280,475,M,1
Jamieson Lalande,26,No,M-O-P-R,Raw,BD,117.93,125,,,,,,142.5,165,175,,175,262.5,282.5,-295,,282.5,457.5,M,1
Ryan Kingma,31,No,M-O-P-R,Raw,BD,129.27,140,,,,,,190,200,-207.5,,200,285,292.5,305,,305,505,M,1
Craig O'Connell,33,No,M-O-P-R,Wraps,SBD,98.43,100,215,232.5,242.5,,242.5,142.5,157.5,160,,160,265,295,317.5,,317.5,720,M,1
Gage Stephens,32,No,M-O-P-R,Wraps,SBD,151.05,140+,312.5,332.5,340,,340,197.5,215,-227.5,,215,300,-322.5,-322.5,,300,855,M,1
Ryan Gregnol,35,No,M-O-P-M,Wraps,SBD,107.95,110,250,262.5,270,,270,165,170,-180,,170,300,320,-330,,320,760,M,1
Justin Zottl,25,No,M-O-P-R,Raw,D,120.2,125,,,,,,,,,,,300,317.5,332.5,,332.5,332.5,M,1
Alastair MacNicol,31,No,M-O-P-R,Raw,SBD,105.23,110,285,-305,312.5,,312.5,177.5,182.5,187.5,,187.5,320,342.5,-352.5,,342.5,842.5,M,1
Austin Mansfield,17,Yes,M-T2-A-R,Wraps,SBD,66,67.5,85,-92.5,100,-115,100,75,80,-85,,80,127.5,132.5,137.5,-157.5,137.5,317.5,M,1
Benoit Dionne,49,Yes,M-M2-A-R,Wraps,SBD,102.97,110,117.5,130,140,,140,75,82.5,87.5,,87.5,142.5,155,167.5,,167.5,395,M,1
Davis Tang,24,Yes,M-O-A-R,Wraps,SBD,79.61,82.5,132.5,145,155,,155,90,102.5,110,,110,172.5,187.5,200,,200,465,M,3
Bryant McNamara,26,Yes,M-O-A-R,Raw,SBD,74.39,75,160,165,172.5,,172.5,-115,120,125,,125,175,185,195,,195,492.5,M,2
Brock Mantha,28,Yes,M-O-A-R,Wraps,SBD,73.94,75,147.5,177.5,-187.5,,177.5,130,147.5,-155,,147.5,180,207.5,222.5,,222.5,547.5,M,1
Brenden Lockett,16,Yes,M-T2-A-R,Wraps,SBD,78.93,82.5,-132.5,147.5,-155,,147.5,-70,70,-72.5,,70,182.5,210,215,,215,432.5,M,1
Khalil Kreidieh,21,Yes,M-J-A-R,Wraps,SBD,78.15,82.5,167.5,177.5,187.5,,187.5,100,105,110,,110,185,195,205,,205,502.5,M,3
Shawn Wall,29,Yes,M-O-A-R,Wraps,SBD,80.97,82.5,147.5,155,170,,170,102.5,112.5,117.5,,117.5,185,202.5,217.5,,217.5,505,M,2
Jordi Lafontaine,24,Yes,M-O-A-R,Wraps,SBD,79.83,82.5,177.5,187.5,202.5,,202.5,102.5,110,-120,,110,185,205,230,,230,542.5,M,1
Jason Rossi,40,Yes,M-M1-A-R,Wraps,SBD,81.65,82.5,167.5,185,-190,,185,100,107.5,-112.5,,107.5,195,-210,-210,,195,487.5,M,1
Justin Sousa,22,Yes,M-J-A-R,Wraps,SBD,81.65,82.5,155,165,175,,175,120,130,135,,135,197.5,-210,210,,210,520,M,2
Jean-Luc Lemery,19,Yes,M-T3-A-R,Wraps,SBD,73.94,75,165,175,185,,185,102.5,110,120,,120,200,212.5,-225,,212.5,517.5,M,1
Steven Rice,19,Yes,M-T3-A-R,Wraps,SBD,73.26,75,165.5,170,-175,,170,85,-92.5,92.5,,92.5,202.5,-215.5,-215.5,,202.5,465,M,2
Ahmed Amine Tahiri,21,Yes,M-J-A-R,Wraps,SBD,79.83,82.5,150,165,-172.5,,165,110,115,122.5,,122.5,205,215,232.5,,232.5,520,M,1
Matt Tabinga,18,Yes,M-T3-A-R,Wraps,SBD,66.22,67.5,140,150,160,,160,100,-105,107.5,,107.5,215,227.5,237.5,245,237.5,505,M,1
Zekiah Hansraj,23,Yes,M-J-A-M,Multi-ply,SBD,73.84,75,205,217.5,-227.5,,217.5,122.5,-132.5,-132.5,,122.5,232.5,245,255,,255,595,M,1
Joel Beardsley,20,Yes,M-J-A-R,Raw,B,82.1,82.5,,,,,,102.5,107.5,110,-112.5,110,,,,,,110,M,1
Troy Sauve,45,Yes,M-M2-A-R,Raw,B,98.09,100,,,,,,187.5,192.5,-200,,192.5,,,,,,192.5,M,1
Jackson Porter,19,Yes,M-T3-A-R,Wraps,SBD,131.18,140,-205,-205,205,,205,100,110,117.5,-127.5,117.5,180,195,207.5,-222.5,207.5,530,M,1
Chris Jackson,33,Yes,M-S-A-R,Wraps,SBD,121.56,125,182.5,192.5,207.5,215,207.5,165,172.5,-182.5,,172.5,225,-242.5,250,-267.5,250,630,M,1
Shakir Sadikali,40,Yes,M-M1-A-R,Wraps,SBD,88.9,90,85,95,110,,110,80,-87.5,92.5,,92.5,145,155,160,,160,362.5,M,1
Bernard Montpetit,47,Yes,M-M2-A-R,Raw,BD,108.86,110,,,,,,105,110,-115,,110,182.5,185,-187.5,,185,295,M,1
Pierre Quirouette,64,Yes,M-M5-A-R,Wraps,SBD,89.36,90,140,-150,160,,160,100,110,117.5,,117.5,175,185,-192.5,,185,462.5,M,1
Russell Mansfield,42,Yes,M-M1-A-R,Raw,BD,114.99,125,,,,,,132.5,137.5,142.5,-147.5,142.5,-195,197.5,205,,205,347.5,M,1
Ryan Falls,37,Yes,M-S-A-R,Wraps,SBD,96.52,100,130,140,147.5,,147.5,107.5,-115,115,,115,180,200,205,,205,467.5,M,1
Jeffrey Moreno Gonzalez,32,Yes,M-O-A-R,Wraps,SBD,85.28,90,175,185,190,,190,130,137.5,-145,,137.5,197.5,210,-215,,210,537.5,M,2
Garrett Hansen,29,Yes,M-O-A-M,Multi-ply,SBD,97.07,100,180,192.5,205,,205,122.5,132.5,142.5,,142.5,200,210,225,,225,572.5,M,1
Cody Humble,32,Yes,M-O-A-R,Wraps,SBD,88.9,90,180,190,-197.5,,190,167.5,-182.5,-182.5,,167.5,192.5,205,-227.5,,205,562.5,M,1
Jonathan Bedard,27,Yes,M-O-A-R,Wraps,SBD,107.27,110,235,-250,250,,250,155,-165,-165,,155,215,225,-235,,225,630,M,1
Chris Roseman,34,Yes,M-S-A-M,Multi-ply,SBD,108.64,110,-225,-225,-225,,,-155,155,-167.5,,155,217.5,237.5,247.5,,247.5,402.5,M,1
Tyler McCarthy,17,Yes,M-T2-A-R,Wraps,SBD,123.65,125,212.5,230,-235,,230,125,137.5,140,-142.5,140,212.5,235,-250,,235,605,M,1
Jean-François Anstead,26,Yes,M-O-A-R,Wraps,SBD,93.89,100,175,185,-195,,185,90,97.5,102.5,,102.5,227.5,247.5,-265,,247.5,535,M,1
Thomas Byrne,24,Yes,M-O-A-R,Wraps,SBD,107.95,110,205,220,-230,,220,150,160,-172.5,,160,245,-262.5,,,245,625,M,2
Jason Kebic,42,Yes,M-M1-A-R,Raw,B,138.35,140,,,,,,87.5,92.5,97.5,,97.5,,,,,,97.5,M,1
Cameron Tomlinson,41,Yes,M-M1-A-R,Raw,B,112.63,125,,,,,,-162.5,-170,-170,,,,,,,,,M,DQ
