Division,WeightClassKg,Place,Name,Team,BodyweightKg,Best3SquatKg,Best3BenchKg,Best3DeadliftKg,TotalKg,Equipment,Event,Sex
Boys,52,1,David Carrasco,Big Lake Reagan County,48.63,133.81,81.65,163.29,378.75,Single-ply,SBD,M
Boys,52,2,Cody Henson,Abernathy,50.08,138.35,70.31,142.88,351.53,Single-ply,SBD,M
Boys,52,3,Jose Perez,Bovina,51.53,136.08,70.31,131.54,337.93,Single-ply,SBD,M
Boys,52,4,Juan Trejo,Friona,45.81,136.08,56.7,138.35,331.12,Single-ply,SBD,M
Boys,52,5,Trey Wachsmann,Miles,51.07,124.74,61.23,131.54,317.51,Single-ply,SBD,M
Boys,52,6,Matt Perez,Ralls,50.62,129.27,63.5,122.47,315.25,Single-ply,SBD,M
Boys,52,7,Nathan Flores,Friona,50.81,113.4,58.97,129.27,301.64,Single-ply,SBD,M
Boys,52,8,Preston Mann,Amarillo Highland Park,51.17,102.06,63.5,120.2,285.76,Single-ply,SBD,M
Boys,52,9,Peter Nguyen #2,Amarillo Highland Park,50.26,106.59,56.7,111.13,274.42,Single-ply,SBD,M
Boys,52,10,Truman Richerson,Abernathy,51.71,113.4,56.7,102.06,272.16,Single-ply,SBD,M
Boys,52,11,Caleb Chacon,Merkel,50.8,104.33,61.23,102.06,267.62,Single-ply,SBD,M
Boys,52,DQ,Jordan Garcia,Slaton,50.26,,,,,Single-ply,SBD,M
Boys,56,1,Mario Hernandez,Friona,55.61,158.76,81.65,174.63,415.04,Single-ply,SBD,M
Boys,56,2,Kevin Nguyen #8,Amarillo Highland Park,55.16,154.22,86.18,172.37,412.77,Single-ply,SBD,M
Boys,56,3,Ryan Folds,San Angelo Grape Creek,52.89,163.29,79.38,161.03,403.7,Single-ply,SBD,M
Boys,56,4,Jose Hernandez,Seagraves,54.98,142.88,88.45,165.56,396.89,Single-ply,SBD,M
Boys,56,5,Nick Gomez,McCamey,54.43,138.35,83.91,154.22,376.48,Single-ply,SBD,M
Boys,56,6,Raul Rey,Big Lake Reagan County,53.07,151.95,63.5,149.69,365.14,Single-ply,SBD,M
Boys,56,7,Edwin Garcia,Friona,55.07,138.35,72.57,149.69,360.61,Single-ply,SBD,M
Boys,56,8,Billy Lee,Amarillo Highland Park,55.43,131.54,81.65,131.54,344.73,Single-ply,SBD,M
Boys,56,9,Sergio Romero,Childress,55.61,129.27,72.57,127.01,328.85,Single-ply,SBD,M
Boys,56,DQ,Lleyton Frazier,Tuscola Jim Ned,54.25,,,,,Single-ply,SBD,M
Boys,56,DQ,Carlos Rodriguez,Olton,54.07,161.03,,,,Single-ply,SBD,M
Boys,56,DQ,Juan Yebra,Olton,55.79,117.93,90.72,,,Single-ply,SBD,M
Boys,60,1,Luis Trejo,Friona,59.78,208.65,117.93,192.78,519.36,Single-ply,SBD,M
Boys,60,2,JD Rojas,Lubbock Roosevelt,59.87,174.63,120.2,190.51,485.34,Single-ply,SBD,M
Boys,60,3,Bryan DeLaTorre,Bovina,59.78,192.78,90.72,195.04,478.54,Single-ply,SBD,M
Boys,60,4,Miguel Vasquez,Farwell,59.87,172.37,115.67,183.7,471.74,Single-ply,SBD,M
Boys,60,5,Gabe Boyett,Moran,59.87,172.37,102.06,181.44,455.86,Single-ply,SBD,M
Boys,60,6,Landon Johnson,Amarillo Highland Park,59.87,145.15,90.72,167.83,403.7,Single-ply,SBD,M
Boys,60,7,Cade Cramer,Mertzon Irion County,59.6,158.76,86.18,151.95,396.89,Single-ply,SBD,M
Boys,60,8,Marin Santiago,Friona,59.69,156.49,70.31,170.1,396.89,Single-ply,SBD,M
Boys,60,9,Santos Yanez,Slaton,59.33,149.69,81.65,149.69,381.02,Single-ply,SBD,M
Boys,60,DQ,Johnny Donnelly,Hawley,58.79,,,,,Single-ply,SBD,M
Boys,60,DQ,Anthony Olivares,Eldorado,,,,,,Single-ply,SBD,M
Boys,60,DQ,Justin Cuellar,Coahoma,,,,,,Single-ply,SBD,M
Boys,67.5,1,Raymon Aranda,Seagraves,65.32,249.48,138.35,231.33,619.15,Single-ply,SBD,M
Boys,67.5,2,Oscar Narvaez,Mertzon Irion County,66.59,204.12,115.67,208.65,528.44,Single-ply,SBD,M
Boys,67.5,3,Johnathan Rankin,Colorado City Colorado,66.04,192.78,113.4,210.92,517.1,Single-ply,SBD,M
Boys,67.5,4,Elvis Tarango,Valentine,66.68,174.63,120.2,219.99,514.83,Single-ply,SBD,M
Boys,67.5,5,Zach Holmes,Coahoma,64.86,174.63,108.86,195.04,478.54,Single-ply,SBD,M
Boys,67.5,6,Jerry Simental,Seagraves,66.68,183.7,104.33,176.9,464.93,Single-ply,SBD,M
Boys,67.5,7,Zach Burt,Hawley,66.41,170.1,113.4,170.1,453.59,Single-ply,SBD,M
Boys,67.5,8,Jayce Hardee,Hawley,63.41,170.1,102.06,170.1,442.25,Single-ply,SBD,M
Boys,67.5,9,Zavian Flores,Kermit,65.59,170.1,92.99,174.63,437.72,Single-ply,SBD,M
Boys,67.5,10,Isiah Zavala,Ralls,62.87,167.83,95.25,172.37,435.45,Single-ply,SBD,M
Boys,67.5,11,John Lugo,Ralls,67.04,163.29,92.99,154.22,410.5,Single-ply,SBD,M
Boys,67.5,DQ,Cody Castor,Childress,,,,,,Single-ply,SBD,M
Boys,75,1,Tristan Wegener,Hawley,71.4,215.46,138.35,176.9,530.7,Single-ply,SBD,M
Boys,75,2,Anthony Perez,Ozona,72.57,197.31,127.01,195.04,519.36,Single-ply,SBD,M
Boys,75,3,Johnny Hernandez,Sundown,67.31,213.19,95.25,204.12,512.56,Single-ply,SBD,M
Boys,75,4,Akimas Clarrett,Colorado City Colorado,70.67,181.44,95.25,181.44,458.13,Single-ply,SBD,M
Boys,75,5,Emannuel Sarabia,Ozona,69.67,167.83,97.52,167.83,433.18,Single-ply,SBD,M
Boys,75,DQ,Leroy Garcia,Miles,72.3,,,,,Single-ply,SBD,M
Boys,75,DQ,Tait Fullwood,Roscoe Collegiate,67.77,,,,,Single-ply,SBD,M
Boys,75,DQ,Francisco Garcia,Roscoe Collegiate,73.48,197.31,115.67,,,Single-ply,SBD,M
Boys,75,DQ,Austin Eubanks,Clyde,70.31,,,,,Single-ply,SBD,M
Boys,75,DQ,Brayden Castillon,Tahoka,73.39,185.97,106.59,,,Single-ply,SBD,M
Boys,75,DQ,Eulices Lupercio,Crane,74.3,,,,,Single-ply,SBD,M
Boys,75,DQ,Adrian Pena,Ballinger,73.75,190.51,122.47,,,Single-ply,SBD,M
Boys,82.5,1,Caleb Wilson,Mertzon Irion County,81.01,254.01,138.35,226.8,619.15,Single-ply,SBD,M
Boys,82.5,2,Link Wilkes,Sundown,81.74,222.26,133.81,242.67,598.74,Single-ply,SBD,M
Boys,82.5,3,Ladd Wilkes,Sundown,80.83,233.6,136.08,226.8,596.47,Single-ply,SBD,M
Boys,82.5,4,Tylor Genn,Memphis,81.01,226.8,158.76,204.12,589.67,Single-ply,SBD,M
Boys,82.5,5,Steban Flores,Ozona,79.38,208.65,161.03,213.19,582.87,Single-ply,SBD,M
Boys,82.5,6,Ethan Tapia,Clyde,81.01,219.99,147.42,195.04,562.45,Single-ply,SBD,M
Boys,82.5,7,Donovan Gomez,Clyde,79.47,222.26,124.74,213.19,560.19,Single-ply,SBD,M
Boys,82.5,8,Jayton Grisham,Abernathy,81.47,210.92,117.93,192.78,521.63,Single-ply,SBD,M
Boys,82.5,9,Julio Narvaez,Eldorado,78.74,208.65,120.2,190.51,519.36,Single-ply,SBD,M
Boys,82.5,10,Caleb Martinez,Ozona,82.1,192.78,122.47,188.24,503.49,Single-ply,SBD,M
Boys,82.5,11,Marco Sanchez,Bovina,81.19,181.44,117.93,199.58,498.95,Single-ply,SBD,M
Boys,82.5,12,Manual Ramos,Bovina,81.83,176.9,129.27,188.24,494.42,Single-ply,SBD,M
Boys,82.5,DQ,Pedro Villarreal,Ralls,76.75,174.63,,,,Single-ply,SBD,M
Boys,90,1,Matt Holmes,Merkel,85.64,235.87,158.76,233.6,628.23,Single-ply,SBD,M
Boys,90,2,Blaine McGregor,Amarillo Highland Park,86.64,240.4,142.88,233.6,616.89,Single-ply,SBD,M
Boys,90,3,Jake Martinez,Hale Center,89.54,226.8,156.49,233.6,616.89,Single-ply,SBD,M
Boys,90,4,Preston Guerra,Seymour,84.91,204.12,124.74,208.65,537.51,Single-ply,SBD,M
Boys,90,5,Cade Barkowsky,Lamesa Klondike,89.72,188.24,136.08,201.85,526.17,Single-ply,SBD,M
Boys,90,6,Adrean Perez,Crane,88.54,197.31,122.47,201.85,521.63,Single-ply,SBD,M
Boys,90,7,Nico Ortiz,Big Lake Reagan County,88.81,204.12,115.67,195.04,514.83,Single-ply,SBD,M
Boys,90,8,Tate Tabor,Moran,87.36,181.44,131.54,199.58,512.56,Single-ply,SBD,M
Boys,90,9,Tanner Mills,Childress,87,195.04,113.4,199.58,508.02,Single-ply,SBD,M
Boys,90,10,Zach Burnett,Garden City,87.45,174.63,108.86,195.04,478.54,Single-ply,SBD,M
Boys,90,11,Dat Luu,Amarillo Highland Park,83.46,156.49,115.67,192.78,464.93,Single-ply,SBD,M
Boys,90,DQ,Tanner Schnoor,Hawley,87.82,254.01,122.47,,,Single-ply,SBD,M
Boys,100,1,JD Esquivel,Big Lake Reagan County,99.25,276.69,140.61,247.21,664.51,Single-ply,SBD,M
Boys,100,2,Valente Perez,Post,99.16,258.55,138.35,238.14,635.03,Single-ply,SBD,M
Boys,100,3,Nathan Sullivan,Abernathy,93.89,240.4,145.15,231.33,616.89,Single-ply,SBD,M
Boys,100,4,Jessy Villagomez,Roby,97.61,233.6,131.54,238.14,603.28,Single-ply,SBD,M
Boys,100,5,Braden Kesler,Tuscola Jim Ned,96.98,206.38,115.67,274.42,596.47,Single-ply,SBD,M
Boys,100,6,Isaia Duenes,Lubbock Roosevelt,98.52,217.72,136.08,235.87,589.67,Single-ply,SBD,M
Boys,100,7,Jacob Collier,Cross Plains,98.7,217.72,122.47,208.65,548.85,Single-ply,SBD,M
Boys,100,8,Caleb Willis,Clyde,93.17,208.65,136.08,199.58,544.31,Single-ply,SBD,M
Boys,100,9,Matthew Leyva,Kermit,94.62,204.12,129.27,188.24,521.63,Single-ply,SBD,M
Boys,100,10,Bobby Zambrano,Coahoma,94.8,192.78,129.27,192.78,514.83,Single-ply,SBD,M
Boys,100,DQ,Angel Gallegos,Big Lake Reagan County,97.61,,,,,Single-ply,SBD,M
Boys,100,DQ,Brandon Lancaster,Ballinger,91.81,215.46,115.67,,,Single-ply,SBD,M
Boys,110,1,Angel De Luna,Big Lake Reagan County,109.41,333.39,183.7,267.62,784.71,Single-ply,SBD,M
Boys,110,2,Tristan Ortiz,Big Lake Reagan County,108.86,299.37,138.35,231.33,669.05,Single-ply,SBD,M
Boys,110,3,Jose Morin,Memphis,103.06,238.14,165.56,240.4,644.1,Single-ply,SBD,M
Boys,110,4,Matt Buckley,Roscoe Collegiate,107.68,235.87,145.15,226.8,607.81,Single-ply,SBD,M
Boys,110,5,Ruben Quinonez,Tahoka,100.33,244.94,142.88,201.85,589.67,Single-ply,SBD,M
Boys,110,6,Ian Ponce,Abernathy,107.86,240.4,142.88,192.78,576.06,Single-ply,SBD,M
Boys,110,7,Oscar Juarez,Childress,99.88,226.8,115.67,206.38,548.85,Single-ply,SBD,M
Boys,110,8,Adolph Medina,Ballinger,103.24,210.92,129.27,206.38,546.58,Single-ply,SBD,M
Boys,110,9,Aj Castro,Sundown,107.95,222.26,127.01,192.78,542.04,Single-ply,SBD,M
Boys,110,10,Israel DelaCruz,Anson,107.23,226.8,115.67,188.24,530.7,Single-ply,SBD,M
Boys,110,DQ,Austin Schoonmaker,Clyde,103.78,195.04,127.01,,,Single-ply,SBD,M
Boys,110,DQ,Travis Carter,Iraan,107.5,231.33,113.4,,,Single-ply,SBD,M
Boys,125,1,Austin McCarty,Childress,122.92,272.16,181.44,226.8,680.39,Single-ply,SBD,M
Boys,125,2,Seth Greer,Clarendon,122.47,235.87,170.1,263.08,669.05,Single-ply,SBD,M
Boys,125,3,Bryndon Robles,Sonora,123.01,265.35,199.58,190.51,655.44,Single-ply,SBD,M
Boys,125,4,Divad Briones,Ballinger,113.76,272.16,170.1,204.12,646.37,Single-ply,SBD,M
Boys,125,5,Even Ybarra,Floydada,118.3,244.94,136.08,231.33,612.35,Single-ply,SBD,M
Boys,125,6,Tahjae Collins,Crane,120.38,240.4,138.35,226.8,605.55,Single-ply,SBD,M
Boys,125,7,David Ornelas,Colorado City Colorado,112.94,215.46,161.03,199.58,576.06,Single-ply,SBD,M
Boys,125,8,Isaiah Montes,Sudan,120.02,219.99,127.01,222.26,569.26,Single-ply,SBD,M
Boys,125,9,Steven Romero,Floydada,115.85,233.6,113.4,215.46,562.45,Single-ply,SBD,M
Boys,125,10,Alexis Rosas,Crane,120.66,217.72,142.88,192.78,553.38,Single-ply,SBD,M
Boys,125,11,Caden Williams,Forsan,117.3,226.8,108.86,195.04,530.7,Single-ply,SBD,M
Boys,125,12,Miguel Valdez,Clyde,117.03,195.04,136.08,185.97,517.1,Single-ply,SBD,M
Boys,125,DQ,Jonah Lopez,Abernathy,,,,,,Single-ply,SBD,M
Boys,125+,1,Justin Trawick,Colorado City Colorado,126.92,281.23,158.76,244.94,684.92,Single-ply,SBD,M
Boys,125+,2,Julian Guerra,Sonora,125.55,254.01,195.04,229.06,678.12,Single-ply,SBD,M
Boys,125+,3,Francisco Saenz,Olton,131.63,260.82,163.29,242.67,666.78,Single-ply,SBD,M
Boys,125+,4,Price Cooper,Lamesa Klondike,134.26,249.48,151.95,256.28,657.71,Single-ply,SBD,M
Boys,125+,5,John Adkins,Clyde,130,260.82,151.95,242.67,655.44,Single-ply,SBD,M
Boys,125+,6,Justin Perez,Farwell,128.28,240.4,149.69,217.72,607.81,Single-ply,SBD,M
Boys,125+,7,Ray Leon,Hawley,131.54,226.8,172.37,204.12,603.28,Single-ply,SBD,M
Boys,125+,8,Taylor Elkins,Mertzon Irion County,136.17,231.33,158.76,204.12,594.21,Single-ply,SBD,M
Boys,125+,9,Gerardo Carrillo,Bovina,135.9,226.8,145.15,217.72,589.67,Single-ply,SBD,M
Boys,125+,10,Carlos Romero,Childress,132.81,247.21,131.54,204.12,582.87,Single-ply,SBD,M
Boys,125+,11,Chris De La Garza,Clyde,142.61,238.14,136.08,197.31,571.53,Single-ply,SBD,M
Boys,125+,DQ,Zathan McIntosh,Kermit,157.31,,,,,Single-ply,SBD,M
Boys,125+,DQ,Brycson Pineda,Forsan,,,,,,Single-ply,SBD,M
