Place,Sex,Name,Event,Division,WeightClassKg,Equipment,BodyweightKg,Best3SquatKg,Best3BenchKg,Best3DeadliftKg,TotalKg,BirthYear
1,M,Justin Ellis,B,R-T3,74,Raw,73.8,,112.5,,112.5,1996
1,M,Jonathan Vasquez,D,R-JR,93,Raw,88.5,,,195,195,1993
1,M,Will Garcia,B,R-O,59,Raw,58.8,,125,,125,1990
1,M,Nicholas Lawry,SBD,R-O,66,Raw,63.9,145,120,197.5,462.5,1977
2,M,Wesley Ervin,SBD,R-O,66,Raw,63.2,160,92.5,200,452.5,1982
3,M,Derek Chen,SBD,R-O,66,Raw,65.9,120,87.5,170,377.5,1990
4,M,David Aguayo,SBD,R-O,66,Raw,64.9,110,87.5,162.5,360,1986
1,M,Jesse Martinez,SBD,R-O,74,Raw,72.8,180,130,200,510,1980
2,M,Akira Nagamori,SBD,R-O,74,Raw,68.5,175,120,205,500,1988
3,M,Ray Kim,SBD,R-O,74,Raw,73,182.5,110,205,497.5,
4,M,Daniel García,SBD,R-O,74,Raw,73.4,150,125,210,485,1984
5,M,Mike Conley #1,SBD,R-O,74,Raw,71.2,162.5,100,172.5,435,1987
6,M,Scott Goswick,SBD,R-O,74,Raw,72.9,132.5,87.5,162.5,382.5,1989
7,M,Norman Green II,BD,R-O,74,Raw,72.9,,115,230,345,1983
1,M,Chris Scott,B,R-O,105,Raw,95.4,,137.5,,137.5,1980
1,M,Olun Riley,SBD,R-M1b,74,Raw,71.8,137.5,92.5,170,400,1969
1,M,Dan Hyman,S,R-M2a,120,Raw,108.6,210,,,210,1963
1,M,Raymond Cavileer,D,R-M3a,93,Raw,88.4,,,227.5,227.5,1953
1,M,Dan Boskovich,B,R-M2b,83,Raw,79.4,,115,,115,1956
1,M,Kevin Jordan,B,R-M2b,120,Raw,105.2,,160,,160,1957
1,M,Antonio Santillan,B,R-Y3,83,Raw,80.4,,85,,85,2002
1,F,Audrey Duffy,B,R-M1b,84,Raw,81,,55,,55,1966
1,M,Raymond Cavileer,D,R-M3a,93,Raw,88.4,,,227.5,227.5,1953
1,M,Jack Marks,SBD,R-T2,74,Raw,72.5,150,92.5,165,407.5,1998
1,M,Duncan Martin,SBD,R-T2,83,Raw,76.6,152.5,92.5,165,410,1998
1,M,Grady Vazquez,SBD,R-T2,105,Raw,94.5,172.5,137.5,190,500,1998
1,M,Andre Caoili,SBD,R-T3,74,Raw,73.7,182.5,105,232.5,520,1995
2,M,Martin Brenner,SBD,R-T3,74,Raw,71.8,170,100,212.5,482.5,1995
3,M,Thomas An,SBD,R-T3,74,Raw,73.4,152.5,102.5,220,475,1995
4,M,Nicholas Pung,SBD,R-T3,74,Raw,72.8,140,92.5,187.5,420,1995
1,M,Kevin Luong,SBD,R-T3,83,Raw,75.9,162.5,92.5,230,485,1995
2,M,Jorge Robles,SBD,R-T3,83,Raw,82,127.5,95,167.5,390,1995
1,M,Charlie Shin,SBD,R-T3,93,Raw,91.9,240,125,265,630,1995
2,M,Zack Bartell,SBD,R-T3,93,Raw,92,185,147.5,227.5,560,1996
3,M,Yu Du,SBD,R-T3,93,Raw,92.3,182.5,117.5,220,520,1996
1,M,Calvin Cheng,SBD,R-T3,105,Raw,105,240,147.5,255,642.5,1995
2,M,Kerwin Cayton,SBD,R-T3,105,Raw,103.4,215,137.5,265,617.5,1997
3,M,Cassidy Sawyer,SBD,R-T3,105,Raw,98.8,142.5,120,175,437.5,1996
1,M,Elliott Wu,SBD,JR,93,Single-ply,93,227.5,125,220,572.5,1989
1,M,Denny Van Nguyen,SBD,R-JR,59,Raw,58.5,145,97.5,167.5,410,
1,M,Josue Pena,SBD,R-JR,74,Raw,72.7,192.5,117.5,205,515,1994
2,M,Alan Fong,SBD,R-JR,74,Raw,71,157.5,112.5,182.5,452.5,1995
3,M,Dominic Rodriguez,SBD,R-JR,74,Raw,72.4,145,102.5,200,447.5,1994
4,M,Christopher Bondoc,SBD,R-JR,74,Raw,71.8,147.5,105,182.5,435,1994
5,M,Elwin Martin,SBD,R-JR,74,Raw,72.7,137.5,105,170,412.5,1993
6,M,Carlos Leon,SBD,R-JR,74,Raw,73.6,147.5,92.5,165,405,1993
7,M,Sean Tsai,SBD,R-JR,74,Raw,70.7,140,90,162.5,392.5,1992
8,M,Frank Qiu,SBD,R-JR,74,Raw,73.5,135,70,170,375,1994
1,M,Keegan Martin,SBD,R-JR,83,Raw,81.7,197.5,107.5,227.5,532.5,1993
2,M,Kishen Sharma,SBD,R-JR,83,Raw,80.5,157.5,107.5,167.5,432.5,1991
1,M,Dennis Bitetti,SBD,R-JR,93,Raw,92.1,215,150,262.5,627.5,1992
2,M,Erik Manukyan,SBD,R-JR,93,Raw,92.6,192.5,117.5,227.5,537.5,1994
1,M,Mason Raasch,SBD,R-JR,105,Raw,104.1,227.5,122.5,245,595,1994
2,M,Tommy Amini,SBD,R-JR,105,Raw,101.3,182.5,140,222.5,545,1994
1,M,Elliot Rowe,SBD,R-O,83,Raw,82.6,217.5,152.5,260,630,1989
2,M,Ryan Suzuki,SBD,R-O,83,Raw,81.4,227.5,145,235,607.5,1987
3,M,Joey Occhipinti,SBD,R-O,83,Raw,81.6,197.5,132.5,262.5,592.5,1989
4,M,Paul Schneider,SBD,R-O,83,Raw,79.2,172.5,110,210,492.5,1977
5,M,Tyler McMurray,SBD,R-O,83,Raw,81.6,145,107.5,185,437.5,1982
6,M,Bryan Jackson,SBD,R-O,83,Raw,81.2,137.5,92.5,185,415,1979
1,M,Kent Wu,SBD,R-O,93,Raw,92.9,237.5,145,272.5,655,1986
2,M,Marius Baltazar,SBD,R-O,93,Raw,90,227.5,137.5,242.5,607.5,1984
3,M,Jason Loewy,SBD,R-O,93,Raw,89.5,220,140,237.5,597.5,1989
4,M,Brandon Littlefield,SBD,R-O,93,Raw,92.9,205,165,187.5,557.5,1977
5,M,Chris Hartle,SBD,R-O,93,Raw,91.8,205,120,227.5,552.5,1988
6,M,Alex Vondrak,SBD,R-O,93,Raw,90.9,175,105,212.5,492.5,1989
7,M,Kemal Eren,SBD,R-O,93,Raw,91.4,152.5,110,185,447.5,1986
8,M,Jeff Jewell,SBD,R-O,93,Raw,92.2,135,95,185,415,1975
1,M,Joseph Franzo,SBD,R-O,105,Raw,104.9,275,192.5,282.5,750,1990
2,M,Hani Jazayrli,SBD,R-O,105,Raw,97.8,250,165,295,710,1990
3,M,Richard Aceves,SBD,R-O,105,Raw,102.6,230,150,250,630,1989
4,M,Sean Jagat,SBD,R-O,105,Raw,101.7,227.5,132.5,230,590,1988
5,M,Wayne Edwards,SBD,R-O,105,Raw,103.6,205,125,237.5,567.5,1980
6,M,Ryan White,SBD,R-O,105,Raw,98.9,185,135,240,560,1986
7,M,Michael Hughson,SBD,R-O,105,Raw,102.8,200,120,232.5,552.5,1986
8,M,Alan Anderson,SBD,R-O,105,Raw,104.5,192.5,122.5,222.5,537.5,1989
9,M,Mark Ozurovich,SBD,R-O,105,Raw,102,175,122.5,205,502.5,1981
1,M,Matt Ostiz,SBD,R-O,120+,Raw,137.9,240,170,255,665,1982
1,M,Phillip Bailey,SBD,R-M1a,83,Raw,82.1,160,100,182.5,442.5,1974
2,M,Phillip Bailey,SBD,R-M1a,83,Raw,82.1,160,100,182.5,442.5,1974
3,M,Daniel Lee,SBD,R-M1a,83,Raw,82,150,82.5,157.5,390,1974
1,M,Darren Garceau,SBD,R-M1a,93,Raw,88.2,132.5,92.5,182.5,407.5,1970
1,M,Davon Brazil,SBD,R-M1a,105,Raw,102.5,215,165,272.5,652.5,1974
2,M,Danny Henry,SBD,R-M1a,105,Raw,104,202.5,140,285,627.5,1971
1,M,Joseph Armenta,SBD,M1b,120,Single-ply,116.9,227.5,137.5,227.5,592.5,1969
1,M,Olun Riley,SBD,R-M1b,74,Raw,71.8,137.5,92.5,170,400,1969
1,M,Miguel Cerda,SBD,R-M1b,93,Raw,91.2,160,130,212.5,502.5,1969
1,M,Craig Rasmussen,SBD,R-M1b,105,Raw,97.5,187.5,127.5,235,550,1970
1,M,Alex Ponder,SBD,R-M2a,93,Raw,91.1,140,120,160,420,1963
1,M,Joe Rodgers,SBD,R-M2a,120+,Raw,152.2,240,170,230,640,1963
2,M,Joe Rodgers,SBD,R-M2a,120+,Raw,152.2,240,170,230,640,1963
1,M,Steve Heyl,SBD,R-M2b,105,Raw,96.7,162.5,100,185,447.5,1960
1,M,Elijah Edelman,SBD,R-Y3,53,Raw,39.8,60,32.5,77.5,170,2001
1,F,Marissa Parkes,SBD,R-T1,52,Raw,51,80,42.5,72.5,195,2001
1,F,Casey Martinez,SBD,R-T1,63,Raw,60,80,27.5,85,192.5,2000
1,F,Bryana Washington,SBD,R-T1,84,Raw,74,75,45,115,235,2001
1,F,Marissa Parada,SBD,R-T2,84,Raw,76,75,32.5,110,217.5,1999
1,F,Andrea Castro,SBD,R-T3,72,Raw,67.2,125,62.5,120,307.5,1995
1,F,Kelly Lin,SBD,R-JR,57,Raw,55,142.5,75,150,367.5,1992
2,F,Kelly Lin,SBD,R-JR,57,Raw,55,142.5,75,150,367.5,1992
3,F,Samantha Nava,SBD,R-JR,57,Raw,57,77.5,35,107.5,220,1991
1,F,Laura Duong,SBD,R-JR,63,Raw,61.2,127.5,65,135,327.5,1993
2,F,Laura Duong,SBD,R-JR,63,Raw,61.2,127.5,65,135,327.5,1993
3,F,Louisa Yu,SBD,R-JR,63,Raw,61.2,115,57.5,137.5,310,1993
4,F,Neha Sodhi,SBD,R-JR,63,Raw,62.2,85,45,115,245,1995
5,F,Tori Valdez,SBD,R-JR,63,Raw,62,72.5,50,90,212.5,1992
6,F,Samantha Ocello,SBD,R-JR,63,Raw,63,80,32.5,92.5,205,1994
1,F,Isabella Okelberry,SBD,R-JR,84,Raw,84,67.5,52.5,90,210,1992
1,F,Tina Daneshmand,SBD,R-O,57,Raw,54.2,125,75,165,365,1986
2,F,Tatiana Pineau,SBD,R-O,57,Raw,57,95,60,120,275,1980
3,F,Raina Taitano,SBD,R-O,57,Raw,54.2,82.5,65,107.5,255,1979
1,F,Pia Johnsson-Sederholm,SBD,R-O,63,Raw,61,115,62.5,120,297.5,
2,F,Hannah Cunningham,SBD,R-O,63,Raw,59,110,55,125,290,1983
1,F,April White,SBD,R-O,72,Raw,69,145,75,175,395,1983
2,F,Allison Goldman,SBD,R-O,72,Raw,71.2,117.5,60,150,327.5,1982
3,F,Jeanette Yamamoto,SBD,R-O,72,Raw,72,92.5,60,117.5,270,1975
4,F,Sandra Davitian,SBD,R-O,72,Raw,70.1,32.5,40,100,172.5,1981
1,F,Kelly Miller,SBD,R-O,84,Raw,74,142.5,62.5,152.5,357.5,1982
1,F,Melina Taylor,SBD,R-O,84+,Raw,99,145,82.5,150,377.5,1986
2,F,Elizabeth Evangelista,SBD,R-O,84+,Raw,88,137.5,75,152.5,365,1989
3,F,Sunny Jengeleski,SBD,R-O,84+,Raw,93,122.5,65,167.5,355,1985
1,F,Melody Schoenfeld,SBD,R-M1a,47,Raw,47,65,47.5,110,222.5,1973
1,F,Chai Brazil,SBD,R-M1a,72,Raw,64.2,105,60,132.5,297.5,1974
1,F,Julie Schneider,SBD,R-M1b,84,Raw,81.2,67.5,50,102.5,220,1968
1,F,Edith Gevorgian,SBD,R-M2a,47,Raw,47,65,40,87.5,192.5,1964
1,F,May Rodgers,SBD,R-M2a,72,Raw,70.1,85,40,115,240,1963
2,F,May Rodgers,SBD,R-M2a,72,Raw,70.1,85,40,115,240,1963
1,F,Jeannine Cascadden,SBD,R-M2a,84,Raw,83,100,60,115,275,1963
2,F,Patricia Nunziati,SBD,R-M2a,84,Raw,81.1,90,62.5,120,272.5,1964
1,F,Terri Beatty,SBD,R-M2b,63,Raw,60,55,32.5,77.5,165,1956
1,F,Sue Albert,SBD,R-M3b,84+,Raw,96.1,45,37.5,85,167.5,1946
1,F,Tessa Parkes,SBD,R-Y3,43,Raw,43,62.5,40,77.5,180,2002
1,F,Sara Mittman,SBD,R-Y3,52,Raw,52,57.5,27.5,80,165,2002
1,M,Marco Parada,BD,R-O,83,Raw,80.9,,132.5,147.5,280,1979
1,F,Barbara Garmon,BD,R-M4a,72,Raw,70,,32.5,65,97.5,1942
2,F,Barbara Garmon,BD,R-M4a,72,Raw,70,,32.5,65,97.5,1942
