Name,Best3SquatKg,Best3BenchKg,Best3DeadliftKg,TotalKg,Sex,WeightClassKg,Event,Equipment,Division,Place
Andi Wijaya,220,105,230,555,M,52,SBD,Single-ply,Open,1
Rochman,230,112.5,190,532.5,M,52,SBD,Single-ply,Open,2
Hok Seng,210,105,215,530,M,52,SBD,Single-ply,Open,3
Subandi,205,105,200,510,M,52,SBD,Single-ply,Open,4
Sukses,195,112.5,200,507.5,M,52,SBD,Single-ply,Open,5
Yuliusman,195,112.5,200,507.5,M,52,SBD,Single-ply,Open,6
Putra,190,105,210,505,M,52,SBD,Single-ply,Open,7
Sobur,207.5,105,180,492.5,M,52,SBD,Single-ply,Open,8
Gusmaidi,190,107.5,190,487.5,M,52,SBD,Single-ply,Open,9
Tambuman,200,105,170,475,M,52,SBD,Single-ply,Open,10
Paulus,175,107.5,180,462.5,M,52,SBD,Single-ply,Open,11
Dusal,115,80,145,340,M,52,SBD,Single-ply,Open,12
Siswoyo,,,,,M,52,SBD,Single-ply,Open,DQ
Dennis Thios,225,150,250,625,M,56,SBD,Single-ply,Open,1
Komarudin,210,105,255,570,M,56,SBD,Single-ply,Open,2
Sutrismo,217.5,117.5,220,555,M,56,SBD,Single-ply,Open,3
Suluhmi,210,110,212.5,532.5,M,56,SBD,Single-ply,Open,4
Syamsul,210,102.5,190,502.5,M,56,SBD,Single-ply,Open,5
Danu,180,125,190,495,M,56,SBD,Single-ply,Open,6
Amin,175,105,210,490,M,56,SBD,Single-ply,Open,7
Ronali,185,92.5,190,467.5,M,56,SBD,Single-ply,Open,8
Cik Yan,175,90,195,460,M,56,SBD,Single-ply,Open,9
Kodir,170,87.5,185,442.5,M,56,SBD,Single-ply,Open,10
Sukardi,150,75,170,395,M,56,SBD,Single-ply,Open,11
Hendro,145,65,160,370,M,56,SBD,Single-ply,Open,12
Jalal,,,,,M,56,SBD,Single-ply,Open,DQ
Hamda,265,125,265,655,M,60,SBD,Single-ply,Open,1
Pandapotan,225,122.5,230,577.5,M,60,SBD,Single-ply,Open,2
Toto,220,130,225,575,M,60,SBD,Single-ply,Open,3
Andreas,220,115,230,565,M,60,SBD,Single-ply,Open,4
Azriandi,220,100,230,550,M,60,SBD,Single-ply,Open,5
Totok,215,115,215,545,M,60,SBD,Single-ply,Open,6
Deden,205,105,212.5,522.5,M,60,SBD,Single-ply,Open,7
Rudolf,185,130,200,515,M,60,SBD,Single-ply,Open,8
Hakin,190,105,215,510,M,60,SBD,Single-ply,Open,9
Agusti,190,112.5,200,502.5,M,60,SBD,Single-ply,Open,10
Kashmoyo,190,115,190,495,M,60,SBD,Single-ply,Open,11
Sariito,185,95,185,465,M,60,SBD,Single-ply,Open,12
Subakir,165,102.5,195,462.5,M,60,SBD,Single-ply,Open,13
Sodik,165,117.5,170,452.5,M,60,SBD,Single-ply,Open,14
Yan,150,110,180,440,M,60,SBD,Single-ply,Open,15
Juhaidi,150,105,160,415,M,60,SBD,Single-ply,Open,16
Cahyo,,,,,M,60,SBD,Single-ply,Open,DQ
Deriswan,265,145,250,660,M,67.5,SBD,Single-ply,Open,1
Sukatma,265,140,250,655,M,67.5,SBD,Single-ply,Open,2
Sentot,250,152.5,240,642.5,M,67.5,SBD,Single-ply,Open,3
Ismamadi,240,120,260,620,M,67.5,SBD,Single-ply,Open,4
Suhardi,242.5,145,230,617.5,M,67.5,SBD,Single-ply,Open,5
Lsmuar,235,145,230,610,M,67.5,SBD,Single-ply,Open,6
Yang Cik,240,132.5,230,602.5,M,67.5,SBD,Single-ply,Open,7
Hermanto,232.5,117.5,235,585,M,67.5,SBD,Single-ply,Open,8
Edwardsyah,215,145,215,575,M,67.5,SBD,Single-ply,Open,9
Rameian,200,115,235,550,M,67.5,SBD,Single-ply,Open,10
Effendi,210,90,235,535,M,67.5,SBD,Single-ply,Open,11
Lrman,185,105,220,510,M,67.5,SBD,Single-ply,Open,12
Leonard,205,110,195,510,M,67.5,SBD,Single-ply,Open,13
Herman,180,125,190,495,M,67.5,SBD,Single-ply,Open,14
Ferry,215,90,190,495,M,67.5,SBD,Single-ply,Open,15
Santos,200,100,190,490,M,67.5,SBD,Single-ply,Open,16
Yulianto,220,95,170,485,M,67.5,SBD,Single-ply,Open,17
Jaimy Lay,190,100,195,485,M,67.5,SBD,Single-ply,Open,18
Suprivanto,190,115,175,480,M,67.5,SBD,Single-ply,Open,19
Gaffar,,,,,M,67.5,SBD,Single-ply,Open,DQ
Syahroni,270,140,290,700,M,75,SBD,Single-ply,Open,1
Marhasim,272.5,135,247.5,655,M,75,SBD,Single-ply,Open,2
Hoviral,250,135,255,640,M,75,SBD,Single-ply,Open,3
Zaidirman,250,145,220,615,M,75,SBD,Single-ply,Open,4
Sudiarto,250,152.5,210,612.5,M,75,SBD,Single-ply,Open,5
Rafii,250,107.5,250,607.5,M,75,SBD,Single-ply,Open,6
Irman,240,152.5,210,602.5,M,75,SBD,Single-ply,Open,7
Jimmy,230,150,200,580,M,75,SBD,Single-ply,Open,8
Jack,230,115,230,575,M,75,SBD,Single-ply,Open,9
Michael,215,120,210,545,M,75,SBD,Single-ply,Open,10
Ibrahim,205,130,210,545,M,75,SBD,Single-ply,Open,11
Made,190,115,230,535,M,75,SBD,Single-ply,Open,12
Markus,205,122.5,205,532.5,M,75,SBD,Single-ply,Open,13
Suwarrno,220,110,200,530,M,75,SBD,Single-ply,Open,14
Raswadi,210,100,220,530,M,75,SBD,Single-ply,Open,15
Hairulsyah,205,125,192.5,522.5,M,75,SBD,Single-ply,Open,16
Rolip,210,102.5,200,512.5,M,75,SBD,Single-ply,Open,17
Zainal,185,110,180,475,M,75,SBD,Single-ply,Open,18
Zaldi,,,,,M,75,SBD,Single-ply,Open,DQ
Petri Haryanto,300,175,285,760,M,82.5,SBD,Single-ply,Open,1
Afrizal,250,150,220,620,M,82.5,SBD,Single-ply,Open,2
Jarot,230,130,242.5,602.5,M,82.5,SBD,Single-ply,Open,3
Simbolon,270,130,200,600,M,82.5,SBD,Single-ply,Open,4
Adekuswanto,210,140,235,585,M,82.5,SBD,Single-ply,Open,5
Sugeng,220,115,240,575,M,82.5,SBD,Single-ply,Open,6
Jhony,240,130,200,570,M,82.5,SBD,Single-ply,Open,7
Yosep Apay,210,125,230,565,M,82.5,SBD,Single-ply,Open,8
Fredi,200,105,180,485,M,82.5,SBD,Single-ply,Open,9
Tandi,180,140,160,480,M,82.5,SBD,Single-ply,Open,10
Sumardi,,,,,M,82.5,SBD,Single-ply,Open,DQ
Mustofa,285,140,265,690,M,90,SBD,Single-ply,Open,1
Arifin,275,132.5,270,677.5,M,90,SBD,Single-ply,Open,2
Ifyandi,270,152.5,250,672.5,M,90,SBD,Single-ply,Open,3
Watiman,295,150,225,670,M,90,SBD,Single-ply,Open,4
Anwar,295,172.5,200,667.5,M,90,SBD,Single-ply,Open,5
Haryanto,240,160,230,630,M,90,SBD,Single-ply,Open,6
Elias,,,,,M,90,SBD,Single-ply,Open,DQ
Chah,285,172.5,260,717.5,M,100,SBD,Single-ply,Open,1
Winarto,297.5,155,250,702.5,M,100,SBD,Single-ply,Open,2
Malau,297.5,117.5,280,695,M,100,SBD,Single-ply,Open,3
Bustami,270,152.5,255,677.5,M,100,SBD,Single-ply,Open,4
Unsu,265,175,215,655,M,100,SBD,Single-ply,Open,5
Hanoch,275,160,220,655,M,100,SBD,Single-ply,Open,6
Norman,255,135,250,640,M,100,SBD,Single-ply,Open,7
Neiles,270,132.5,225,627.5,M,100,SBD,Single-ply,Open,8
Dominggus,332.5,180,312.5,825,M,110,SBD,Single-ply,Open,1
Taufik,330,150,300,780,M,110,SBD,Single-ply,Open,2
Suwito,275,162.5,242.5,680,M,110,SBD,Single-ply,Open,3
Suwardi,280,150,240,670,M,110,SBD,Single-ply,Open,4
Helnedi,267.5,157.5,230,655,M,110,SBD,Single-ply,Open,5
Gusmao,280,127.5,220,627.5,M,110,SBD,Single-ply,Open,6
Effendi,272.5,170,270,712.5,M,125,SBD,Single-ply,Open,1
Almahuri,230,170,230,630,M,125,SBD,Single-ply,Open,2
Mulyono,270,130,230,630,M,125,SBD,Single-ply,Open,3
Wahyu,285,162.5,250,697.5,M,125+,SBD,Single-ply,Open,1
Thon Ce Lie,287.5,140,262.5,690,M,125+,SBD,Single-ply,Open,2
Rosmiyati,100,45,120,265,F,44,SBD,Single-ply,Open,1
Lamini,100,55,107.5,262.5,F,44,SBD,Single-ply,Open,2
Debora,105,47.5,105,257.5,F,44,SBD,Single-ply,Open,3
Rosmainar,105,40,110,255,F,44,SBD,Single-ply,Open,4
Warsini,95,45,107.5,247.5,F,44,SBD,Single-ply,Open,5
O. O. Y,100,37.5,110,247.5,F,44,SBD,Single-ply,Open,6
Debi,107.5,37.5,102.5,247.5,F,44,SBD,Single-ply,Open,7
Wachyuni,115,52.5,132.5,300,F,48,SBD,Single-ply,Open,1
Supartini,120,45,130,295,F,48,SBD,Single-ply,Open,2
Tumirah,112.5,50,115,277.5,F,48,SBD,Single-ply,Open,3
Watofa,105,37.5,120,262.5,F,48,SBD,Single-ply,Open,4
Rahayu,115,40,100,255,F,48,SBD,Single-ply,Open,5
Spiriani,90,50,112.5,252.5,F,48,SBD,Single-ply,Open,6
Sinamira,,,,,F,48,SBD,Single-ply,Open,DQ
Mingguriati,140,55,130,325,F,52,SBD,Single-ply,Open,1
Nursiah,120,55,125,300,F,52,SBD,Single-ply,Open,2
Ermita,120,50,130,300,F,52,SBD,Single-ply,Open,3
Indri,120,50,127.5,297.5,F,52,SBD,Single-ply,Open,4
Landa,105,50,122.5,277.5,F,52,SBD,Single-ply,Open,6
Sudiarti,110,72.5,105,287.5,F,52,SBD,Single-ply,Open,5
Firmawati,100,55,80,235,F,52,SBD,Single-ply,Open,7
Ita,100,,,,F,52,SBD,Single-ply,Open,DQ
Maraoh,140,65,132.5,337.5,F,56,SBD,Single-ply,Open,1
Jasmi,130,50,120,300,F,56,SBD,Single-ply,Open,2
Andrian,120,40,130,290,F,56,SBD,Single-ply,Open,3
Ni Luh,120,50,120,290,F,56,SBD,Single-ply,Open,4
Lis,95,55,125,275,F,56,SBD,Single-ply,Open,5
Tuti,100,55,110,265,F,56,SBD,Single-ply,Open,6
Susi,100,45,120,265,F,56,SBD,Single-ply,Open,7
Nanuk,95,40,125,260,F,56,SBD,Single-ply,Open,8
Sartina,110,40,105,255,F,56,SBD,Single-ply,Open,9
Sulikmah,90,50,100,240,F,56,SBD,Single-ply,Open,10
Naomi,,,,,F,56,SBD,Single-ply,Open,DQ
Ani,135,57.5,120,312.5,F,60,SBD,Single-ply,Open,1
Yuli,135,52.5,120,307.5,F,60,SBD,Single-ply,Open,2
Yani,115,57.5,130,302.5,F,60,SBD,Single-ply,Open,4
Emi,117.5,62.5,127.5,307.5,F,60,SBD,Single-ply,Open,3
Ida,120,50,125,295,F,60,SBD,Single-ply,Open,5
Musni,120,55,120,295,F,60,SBD,Single-ply,Open,6
Yuyun,125,42.5,115,282.5,F,60,SBD,Single-ply,Open,8
Surtinah,125,50,110,285,F,60,SBD,Single-ply,Open,7
Lea,112.5,42.5,115,270,F,60,SBD,Single-ply,Open,9
Ida,100,50,110,260,F,60,SBD,Single-ply,Open,10
Cutwan,110,37.5,97.5,245,F,60,SBD,Single-ply,Open,11
Fathul,100,45,97.5,242.5,F,60,SBD,Single-ply,Open,12
Zuryani,85,40,95,220,F,60,SBD,Single-ply,Open,13
Dewi,75,30,77.5,182.5,F,60,SBD,Single-ply,Open,14
Daldiyem,,,,,F,60,SBD,Single-ply,Open,DQ
Itae,,,,,F,60,SBD,Single-ply,Open,DQ
Agustina,170,67.5,145,382.5,F,67.5,SBD,Single-ply,Open,1
Ching,155,55,155,365,F,67.5,SBD,Single-ply,Open,2
Rukiana,155,72.5,132.5,360,F,67.5,SBD,Single-ply,Open,3
Rosidah,142.5,57.5,147.5,347.5,F,67.5,SBD,Single-ply,Open,4
Purwaningsi,152.5,45,145,342.5,F,67.5,SBD,Single-ply,Open,5
Yani,155,65,120,340,F,67.5,SBD,Single-ply,Open,6
Srayer,135,62.5,130,327.5,F,67.5,SBD,Single-ply,Open,7
N. I. N. I,125,60,130,315,F,67.5,SBD,Single-ply,Open,8
Yushna Pasi,125,45,135,305,F,67.5,SBD,Single-ply,Open,9
Nuripah,110,55,130,295,F,67.5,SBD,Single-ply,Open,10
Nurianti,170,72.5,140,382.5,F,75,SBD,Single-ply,Open,1
Sibi,150,60,150,360,F,75,SBD,Single-ply,Open,2
Gusti,150,65,140,355,F,75,SBD,Single-ply,Open,3
Fabiola,130,55,137.5,322.5,F,75,SBD,Single-ply,Open,4
Endria,140,50,125,315,F,75,SBD,Single-ply,Open,5
Ella,132.5,45,122.5,300,F,75,SBD,Single-ply,Open,6
Krisnawati,145,55,100,300,F,75,SBD,Single-ply,Open,7
Susi,107.5,50,120,277.5,F,75,SBD,Single-ply,Open,8
Evy,,,,,F,75,SBD,Single-ply,Open,DQ
Caryawati,,,,,F,75,SBD,Single-ply,Open,DQ
Yayuk,150,55,142.5,347.5,F,82.5,SBD,Single-ply,Open,1
Welky,137.5,55,130,322.5,F,82.5,SBD,Single-ply,Open,2
Siti,135,55,130,320,F,82.5,SBD,Single-ply,Open,3
Butet,120,55,140,315,F,82.5,SBD,Single-ply,Open,4
Nazarizah,120,67.5,80,267.5,F,82.5,SBD,Single-ply,Open,5
Makhrona,100,40,125,265,F,82.5,SBD,Single-ply,Open,6
