Place,Name,Sex,Event,Division,WeightClassKg,Equipment,BirthYear,State,BodyweightKg,Squat1Kg,Squat2Kg,Squat3Kg,Best3SquatKg,Bench1Kg,Bench2Kg,Bench3Kg,Best3BenchKg,Deadlift1Kg,Deadlift2Kg,Deadlift3Kg,Best3DeadliftKg,TotalKg,BirthDate
1,Valeri Natole,F,B,R-JR,72,Raw,1998,PA,64.7,,,,,52.5,57.5,60,60,,,,,60,
1,Jamie Schlier,F,SBD,R-JR,52,Raw,1998,PA,50.4,102.5,107.5,112.5,112.5,47.5,-50,-50,47.5,100,107.5,112.5,112.5,272.5,
1,Shannon Kudlawiec,F,SBD,R-JR,57,Raw,1998,PA,57,110,115,120,120,52.5,57.5,-60,57.5,130,137.5,142.5,142.5,320,
1,Jennifer Norton,F,SBD,R-JR,72,Raw,1997,PA,68.5,125,132.5,137.5,137.5,75,-80,-80,75,132.5,140,145,145,357.5,
2,Tamara Thomas,F,SBD,R-JR,72,Raw,1998,DE,71.7,122.5,127.5,132.5,132.5,75,-80,80,80,135,-142.5,142.5,142.5,355,
3,Eva Feindt,F,SBD,R-JR,72,Raw,1998,PA,69,97.5,107.5,115,115,57.5,62.5,65,65,147.5,157.5,-165,157.5,337.5,
1,Lisa Kile,F,SBD,R-O,63,Raw,1982,PA,61.9,90,95,-105,95,-55,55,60,60,110,115,-120,115,270,
1,Denielle Wauthier,F,SBD,R-O,72,Raw,1991,PA,70.2,-140,140,150,150,75,-80,-80,75,165,172.5,-177.5,172.5,397.5,
1,Megan White,F,SBD,R-O,84,Raw,1993,WV,72.9,87.5,-95,-95,87.5,-40,-50,50,50,105,112.5,120,120,257.5,
1,Jacquelynne Duble,F,SBD,R-O,84+,Raw,1982,PA,85,152.5,165,-170,165,80,85,-92.5,85,165,175,182.5,182.5,432.5,
2,Christina Paugh,F,SBD,R-O,84+,Raw,1983,VA,109.5,120,-125,125,125,60,65,-67.5,65,130,137.5,145,145,335,
DQ,Olivia Moore,F,SBD,R-T2,84+,Raw,2002,MD,99.8,-97.5,-105,-105,,-57.5,57.5,-60,57.5,95,100,105,105,,
1,Roman Kasparian,M,SBD,R-JR,74,Raw,1998,VA,70.8,170,182.5,190,190,115,120,122.5,122.5,182.5,192.5,205,205,517.5,
1,Nick Sia,M,SBD,R-JR,83,Raw,1997,OH,81.4,187.5,200,-210,200,107.5,115,-122.5,115,200,210,217.5,217.5,532.5,
1,Brian Phillips,M,SBD,R-JR,120,Raw,1968,PA,106.7,-192.5,192.5,-220,192.5,102.5,107.5,115,115,192.5,212.5,-230,212.5,520,
1,Tab Brown,M,SBD,R-M1a,120+,Raw,1978,WV,135.8,227.5,242.5,252.5,252.5,165,172.5,-182.5,172.5,250,275,-280,275,700,
DQ,Craig Miladin,M,SBD,R-M2a,105,Raw,1967,OH,97,-185,185,-197.5,185,-132.5,-132.5,-132.5,,182.5,,,182.5,,
1,Brian Phillips,M,SBD,R-M2a,120,Raw,1968,PA,110.5,122.5,130,-137.5,130,102.5,107.5,-112.5,107.5,145,155,185,185,422.5,
1,Evan Kelly,M,SBD,R-O,83,Raw,1993,OH,78.3,172.5,180,-192.5,180,112.5,-120,-120,112.5,225,235,245,245,537.5,
1,Thomas Palermo,M,SBD,R-O,93,Raw,1984,OH,90.5,202.5,212.5,220,220,177.5,180,-182.5,180,225,237.5,247.5,247.5,647.5,
2,Noah Roberts,M,SBD,R-O,93,Raw,1996,OH,88.6,210,220,-225,220,132.5,140,-142.5,140,235,245,-252.5,245,605,
3,Jake Lucas,M,SBD,R-O,93,Raw,1992,OH,90.1,-170,-170,182.5,182.5,145,155,-157.5,155,230,240,250,250,587.5,
4,Christopher Eloi,M,SBD,R-O,93,Raw,1992,WV,89.3,207.5,217.5,-227.5,217.5,140,-145,-145,140,192.5,202.5,-212.5,202.5,560,
5,Billy Ray,M,SBD,R-O,93,Raw,1985,VA,84.5,167.5,177.5,185,185,125,132.5,135,135,207.5,217.5,227.5,227.5,547.5,
6,Greyson Caplinger,M,SBD,R-O,93,Raw,1992,WV,87.8,160,172.5,185,185,125,132.5,-137.5,132.5,200,-212.5,-212.5,200,517.5,
1,Michael Harmon,M,SBD,R-O,105,Raw,1989,WV,101.3,260,272.5,-277.5,272.5,170,185,-190,185,260,275,277.5,277.5,735,1989-03-30
1,Jared Cummons,M,SBD,R-O,120,Raw,1981,WV,118.9,190,200,-207.5,200,137.5,145,-150,145,212.5,230,240,240,585,
2,Randen McDonald,M,SBD,R-O,120,Raw,1982,WV,110,200,210,-220,210,142.5,-150,-152.5,142.5,212.5,-227.5,227.5,227.5,580,
3,Brian Kile,M,SBD,R-O,120,Raw,1981,PA,109.8,185,200,-215,200,145,-155,-155,145,200,220,-227.5,220,565,
4,Brock Glotfelty,M,SBD,R-O,120,Raw,1989,MD,112.8,175,185,195,195,142.5,150,-155,150,195,205,220,220,565,
5,Beau Moore #2,M,SBD,R-O,120,Raw,1982,MD,118.5,185,190,-195,190,145,-147.5,147.5,147.5,220,-225,-225,220,557.5,
1,Matt Trezise,M,SBD,R-O,120+,Raw,1991,MD,162,265,275,285,285,182.5,190,195,195,262.5,272.5,-292.5,272.5,752.5,
2,Brock Grafton,M,SBD,R-O,120+,Raw,1992,OH,132.3,260,280,285,285,160,175,-182.5,175,250,-272.5,-272.5,250,710,
3,Brandon Curtis,M,SBD,R-O,120+,Raw,1987,PA,128,200,215,-220,215,145,-150,-150,145,240,-260,260,260,620,
4,Joshua Absher,M,SBD,R-O,120+,Raw,1989,MD,166.9,160,-172.5,187.5,187.5,147.5,-165,-165,147.5,152.5,165,182.5,182.5,517.5,
1,Ethan Dolin,M,SBD,R-T2,74,Raw,2002,TX,71.5,132.5,140,142.5,142.5,85,90,95,95,165,177.5,-182.5,177.5,415,
1,Luke Henkel,M,SBD,R-T3,83,Raw,1999,VA,78.7,182.5,192.5,200,200,112.5,-115,-117.5,112.5,192.5,210,-212.5,210,522.5,
